Tips to Make it into the MLB
…
highpay_tree = 
  decision_tree() %>%
  set_engine(engine = "rpart") %>%
  set_mode(mode = "regression") %>%
  fit(salary ~ name_full + yearID.x + state,
      data = highpay_train)

highpay_pred = highpay_tree %>%
  predict(new_data = highpay_test) 

highpay_pred

## # A tibble: 12,084 x 1
##       .pred
##       <dbl>
##  1 1764332.
##  2 6376727.
##  3 3232316.
##  4 3232316.
##  5 1764332.
##  6 3232316.
##  7 3232316.
##  8 3232316.
##  9 3232316.
## 10 3232316.
## #  with 12,074 more rows
…
